Celsius
-40.00
-39.94
-39.89
-39.83
-39.78
-39.72
-39.67
-39.61
-39.56
-39.50
-39.44
-39.39
-39.33
-39.28
-39.22
-39.17
-39.11
-39.06
-39.00
-38.94
-38.89
-38.83
-38.78
-38.72
-38.67
-38.61
-38.56
-38.50
-38.44
-38.39
-38.33
-38.28
-38.22
-38.17
-38.11
-38.06
-38.00
-37.94
-37.89
-37.83
-37.78
-37.72
-37.67
-37.61
-37.56
-37.50
-37.44
-37.39
-37.33
-37.28
-37.22
-37.17
-37.11
-37.06
-37.00
-36.94
-36.89
-36.83
-36.78
-36.72
-36.67
-36.61
-36.56
-36.50
-36.44
-36.39
-36.33
-36.28
-36.22
-36.17
-36.11
-36.06
-36.00
-35.94
-35.89
-35.83
-35.78
-35.72
-35.67
-35.61
-35.56
-35.50
-35.44
-35.39
-35.33
-35.28
-35.22
-35.17
-35.11
-35.06
-35.00
-34.94
-34.89
-34.83
-34.78
-34.72
-34.67
-34.61
-34.56
-34.50
-34.44
-34.39
-34.33
-34.28
-34.22
-34.17
-34.11
-34.06
-34.00
-33.94
-33.89
-33.83
-33.78
-33.72
-33.67
-33.61
-33.56
-33.50
-33.44
-33.39
-33.33
-33.28
-33.22
-33.17
-33.11
-33.06
-33.00
-32.94
-32.89
-32.83
-32.78
-32.72
-32.67
-32.61
-32.56
-32.50
-32.44
-32.39
-32.33
-32.28
-32.22
-32.17
-32.11
-32.06
-32.00
-31.94
-31.89
-31.83
-31.78
-31.72
-31.67
-31.61
-31.56
-31.50
-31.44
-31.39
-31.33
-31.28
-31.22
-31.17
-31.11
-31.06
-31.00
-30.94
-30.89
-30.83
-30.78
-30.72
-30.67
-30.61
-30.56
-30.50
-30.44
-30.39
-30.33
-30.28
-30.22
-30.17
-30.11
-30.06
-30.00
-29.94
-29.89
-29.83
-29.78
-29.72
-29.67
-29.61
-29.56
-29.50
-29.44
-29.39
-29.33
-29.28
-29.22
-29.17
-29.11
-29.06
-29.00
-28.94
-28.89
-28.83
-28.78
-28.72
-28.67
-28.61
-28.56
-28.50
-28.44
-28.39
-28.33
-28.28
-28.22
-28.17
-28.11
-28.06
-28.00
-27.94
-27.89
-27.83
-27.78
-27.72
-27.67
-27.61
-27.56
-27.50
-27.44
-27.39
-27.33
-27.28
-27.22
-27.17
-27.11
-27.06
-27.00
-26.94
-26.89
-26.83
-26.78
-26.72
-26.67
-26.61
-26.56
-26.50
-26.44
-26.39
-26.33
-26.28
-26.22
-26.17
-26.11
-26.06
-26.00
-25.94
-25.89
-25.83
-25.78
-25.72
-25.67
-25.61
-25.56
-25.50
-25.44
-25.39
-25.33
-25.28
-25.22
-25.17
-25.11
-25.06
-25.00
-24.94
-24.89
-24.83
-24.78
-24.72
-24.67
-24.61
-24.56
-24.50
-24.44
-24.39
-24.33
-24.28
-24.22
-24.17
-24.11
-24.06
-24.00
-23.94
-23.89
-23.83
-23.78
-23.72
-23.67
-23.61
-23.56
-23.50
-23.44
-23.39
-23.33
-23.28
-23.22
-23.17
-23.11
-23.06
-23.00
-22.94
-22.89
-22.83
-22.78
-22.72
-22.67
-22.61
-22.56
-22.50
-22.44
-22.39
-22.33
-22.28
-22.22
-22.17
-22.11
-22.06
-22.00
-21.94
-21.89
-21.83
-21.78
-21.72
-21.67
-21.61
-21.56
-21.50
-21.44
-21.39
-21.33
-21.28
-21.22
-21.17
-21.11
-21.06
-21.00
-20.94
-20.89
-20.83
-20.78
-20.72
-20.67
-20.61
-20.56
-20.50
-20.44
-20.39
-20.33
-20.28
-20.22
-20.17
-20.11
-20.06
-20.00
-19.94
-19.89
-19.83
-19.78
-19.72
-19.67
-19.61
-19.56
-19.50
-19.44
-19.39
-19.33
-19.28
-19.22
-19.17
-19.11
-19.06
-19.00
-18.94
-18.89
-18.83
-18.78
-18.72
-18.67
-18.61
-18.56
-18.50
-18.44
-18.39
-18.33
-18.28
-18.22
-18.17
-18.11
-18.06
-18.00
-17.94
-17.89
-17.83
-17.78
-17.72
-17.67
-17.61
-17.56
-17.50
-17.44
-17.39
-17.33
-17.28
-17.22
-17.17
-17.11
-17.06
-17.00
-16.94
-16.89
-16.83
-16.78
-16.72
-16.67
-16.61
-16.56
-16.50
-16.44
-16.39
-16.33
-16.28
-16.22
-16.17
-16.11
-16.06
-16.00
-15.94
-15.89
-15.83
-15.78
-15.72
-15.67
-15.61
-15.56
-15.50
-15.44
-15.39
-15.33
-15.28
-15.22
-15.17
-15.11
-15.06
-15.00
-14.94
-14.89
-14.83
-14.78
-14.72
-14.67
-14.61
-14.56
-14.50
-14.44
-14.39
-14.33
-14.28
-14.22
-14.17
-14.11
-14.06
-14.00
-13.94
-13.89
-13.83
-13.78
-13.72
-13.67
-13.61
-13.56
-13.50
-13.44
-13.39
-13.33
-13.28
-13.22
-13.17
-13.11
-13.06
-13.00
-12.94
-12.89
-12.83
-12.78
-12.72
-12.67
-12.61
-12.56
-12.50
-12.44
-12.39
-12.33
-12.28
-12.22
-12.17
-12.11
-12.06
-12.00
-11.94
-11.89
-11.83
-11.78
-11.72
-11.67
-11.61
-11.56
-11.50
-11.44
-11.39
-11.33
-11.28
-11.22
-11.17
-11.11
-11.06
-11.00
-10.94
-10.89
-10.83
-10.78
-10.72
-10.67
-10.61
-10.56
-10.50
-10.44
-10.39
-10.33
-10.28
-10.22
-10.17
-10.11
-10.06
-10.00
-9.94
-9.89
-9.83
-9.78
-9.72
-9.67
-9.61
-9.56
-9.50
-9.44
-9.39
-9.33
-9.28
-9.22
-9.17
-9.11
-9.06
-9.00
-8.94
-8.89
-8.83
-8.78
-8.72
-8.67
-8.61
-8.56
-8.50
-8.44
-8.39
-8.33
-8.28
-8.22
-8.17
-8.11
-8.06
-8.00
-7.94
-7.89
-7.83
-7.78
-7.72
-7.67
-7.61
-7.56
-7.50
-7.44
-7.39
-7.33
-7.28
-7.22
-7.17
-7.11
-7.06
-7.00
-6.94
-6.89
-6.83
-6.78
-6.72
-6.67
-6.61
-6.56
-6.50
-6.44
-6.39
-6.33
-6.28
-6.22
-6.17
-6.11
-6.06
-6.00
-5.94
-5.89
-5.83
-5.78
-5.72
-5.67
-5.61
-5.56
-5.50
-5.44
-5.39
-5.33
-5.28
-5.22
-5.17
-5.11
-5.06
-5.00
-4.94
-4.89
-4.83
-4.78
-4.72
-4.67
-4.61
-4.56
-4.50
-4.44
-4.39
-4.33
-4.28
-4.22
-4.17
-4.11
-4.06
-4.00
-3.94
-3.89
-3.83
-3.78
-3.72
-3.67
-3.61
-3.56
-3.50
-3.44
-3.39
-3.33
-3.28
-3.22
-3.17
-3.11
-3.06
-3.00
-2.94
-2.89
-2.83
-2.78
-2.72
-2.67
-2.61
-2.56
-2.50
-2.44
-2.39
-2.33
-2.28
-2.22
-2.17
-2.11
-2.06
-2.00
-1.94
-1.89
-1.83
-1.78
-1.72
-1.67
-1.61
-1.56
-1.50
-1.44
-1.39
-1.33
-1.28
-1.22
-1.17
-1.11
-1.06
-1.00
-0.94
-0.89
-0.83
-0.78
-0.72
-0.67
-0.61
-0.56
-0.50
-0.44
-0.39
-0.33
-0.28
-0.22
-0.17
-0.11
-0.06
0.00
0.06
0.11
0.17
0.22
0.28
0.33
0.39
0.44
0.50
0.56
0.61
0.67
0.72
0.78
0.83
0.89
0.94
1.00
1.06
1.11
1.17
1.22
1.28
1.33
1.39
1.44
1.50
1.56
1.61
1.67
1.72
1.78
1.83
1.89
1.94
2.00
2.06
2.11
2.17
2.22
2.28
2.33
2.39
2.44
2.50
2.56
2.61
2.67
2.72
2.78
2.83
2.89
2.94
3.00
3.06
3.11
3.17
3.22
3.28
3.33
3.39
3.44
3.50
3.56
3.61
3.67
3.72
3.78
3.83
3.89
3.94
4.00
4.06
4.11
4.17
4.22
4.28
4.33
4.39
4.44
4.50
4.56
4.61
4.67
4.72
4.78
4.83
4.89
4.94
5.00
5.06
5.11
5.17
5.22
5.28
5.33
5.39
5.44
5.50
5.56
5.61
5.67
5.72
5.78
5.83
5.89
5.94
6.00
6.06
6.11
6.17
6.22
6.28
6.33
6.39
6.44
6.50
6.56
6.61
6.67
6.72
6.78
6.83
6.89
6.94
7.00
7.06
7.11
7.17
7.22
7.28
7.33
7.39
7.44
7.50
7.56
7.61
7.67
7.72
7.78
7.83
7.89
7.94
8.00
8.06
8.11
8.17
8.22
8.28
8.33
8.39
8.44
8.50
8.56
8.61
8.67
8.72
8.78
8.83
8.89
8.94
9.00
9.06
9.11
9.17
9.22
9.28
9.33
9.39
9.44
9.50
9.56
9.61
9.67
9.72
9.78
9.83
9.89
9.94
10.00
10.06
10.11
10.17
10.22
10.28
10.33
10.39
10.44
10.50
10.56
10.61
10.67
10.72
10.78
10.83
10.89
10.94
11.00
11.06
11.11
11.17
11.22
11.28
11.33
11.39
11.44
11.50
11.56
11.61
11.67
11.72
11.78
11.83
11.89
11.94
12.00
12.06
12.11
12.17
12.22
12.28
12.33
12.39
12.44
12.50
12.56
12.61
12.67
12.72
12.78
12.83
12.89
12.94
13.00
13.06
13.11
13.17
13.22
13.28
13.33
13.39
13.44
13.50
13.56
13.61
13.67
13.72
13.78
13.83
13.89
13.94
14.00
14.06
14.11
14.17
14.22
14.28
14.33
14.39
14.44
14.50
14.56
14.61
14.67
14.72
14.78
14.83
14.89
14.94
15.00
15.06
15.11
15.17
15.22
15.28
15.33
15.39
15.44
15.50
15.56
15.61
15.67
15.72
15.78
15.83
15.89
15.94
16.00
16.06
16.11
16.17
16.22
16.28
16.33
16.39
16.44
16.50
16.56
16.61
16.67
16.72
16.78
16.83
16.89
16.94
17.00
17.06
17.11
17.17
17.22
17.28
17.33
17.39
17.44
17.50
17.56
17.61
17.67
17.72
17.78
17.83
17.89
17.94
18.00
18.06
18.11
18.17
18.22
18.28
18.33
18.39
18.44
18.50
18.56
18.61
18.67
18.72
18.78
18.83
18.89
18.94
19.00
19.06
19.11
19.17
19.22
19.28
19.33
19.39
19.44
19.50
19.56
19.61
19.67
19.72
19.78
19.83
19.89
19.94
20.00
20.06
20.11
20.17
20.22
20.28
20.33
20.39
20.44
20.50
20.56
20.61
20.67
20.72
20.78
20.83
20.89
20.94
21.00
21.06
21.11
21.17
21.22
21.28
21.33
21.39
21.44
21.50
21.56
21.61
21.67
21.72
21.78
21.83
21.89
21.94
22.00
22.06
22.11
22.17
22.22
22.28
22.33
22.39
22.44
22.50
22.56
22.61
22.67
22.72
22.78
22.83
22.89
22.94
23.00
23.06
23.11
23.17
23.22
23.28
23.33
23.39
23.44
23.50
23.56
23.61
23.67
23.72
23.78
23.83
23.89
23.94
24.00
24.06
24.11
24.17
24.22
24.28
24.33
24.39
24.44
24.50
24.56
24.61
24.67
24.72
24.78
24.83
24.89
24.94
25.00
25.06
25.11
25.17
25.22
25.28
25.33
25.39
25.44
25.50
25.56
25.61
25.67
25.72
25.78
25.83
25.89
25.94
26.00
26.06
26.11
26.17
26.22
26.28
26.33
26.39
26.44
26.50
26.56
26.61
26.67
26.72
26.78
26.83
26.89
26.94
27.00
27.06
27.11
27.17
27.22
27.28
27.33
27.39
27.44
27.50
27.56
27.61
27.67
27.72
27.78
27.83
27.89
27.94
28.00
28.06
28.11
28.17
28.22
28.28
28.33
28.39
28.44
28.50
28.56
28.61
28.67
28.72
28.78
28.83
28.89
28.94
29.00
29.06
29.11
29.17
29.22
29.28
29.33
29.39
29.44
29.50
29.56
29.61
29.67
29.72
29.78
29.83
29.89
29.94
30.00
30.06
30.11
30.17
30.22
30.28
30.33
30.39
30.44
30.50
30.56
30.61
30.67
30.72
30.78
30.83
30.89
30.94
31.00
31.06
31.11
31.17
31.22
31.28
31.33
31.39
31.44
31.50
31.56
31.61
31.67
31.72
31.78
31.83
31.89
31.94
32.00
32.06
32.11
32.17
32.22
32.28
32.33
32.39
32.44
32.50
32.56
32.61
32.67
32.72
32.78
32.83
32.89
32.94
33.00
33.06
33.11
33.17
33.22
33.28
33.33
33.39
33.44
33.50
33.56
33.61
33.67
33.72
33.78
33.83
33.89
33.94
34.00
34.06
34.11
34.17
34.22
34.28
34.33
34.39
34.44
34.50
34.56
34.61
34.67
34.72
34.78
34.83
34.89
34.94
35.00
35.06
35.11
35.17
35.22
35.28
35.33
35.39
35.44
35.50
35.56
35.61
35.67
35.72
35.78
35.83
35.89
35.94
36.00
36.06
36.11
36.17
36.22
36.28
36.33
36.39
36.44
36.50
36.56
36.61
36.67
36.72
36.78
36.83
36.89
36.94
37.00
37.06
37.11
37.17
37.22
37.28
37.33
37.39
37.44
37.50
37.56
37.61
37.67
37.72
37.78
37.83
37.89
37.94
38.00
38.06
38.11
38.17
38.22
38.28
38.33
38.39
38.44
38.50
38.56
38.61
38.67
38.72
38.78
38.83
38.89
38.94
39.00
39.06
39.11
39.17
39.22
39.28
39.33
39.39
39.44
39.50
39.56
39.61
39.67
39.72
39.78
39.83
39.89
39.94
40.00
40.06
40.11
40.17
40.22
40.28
40.33
40.39
40.44
40.50
40.56
40.61
40.67
40.72
40.78
40.83
40.89
40.94
41.00
41.06
41.11
41.17
41.22
41.28
41.33
41.39
41.44
41.50
41.56
41.61
41.67
41.72
41.78
41.83
41.89
41.94
42.00
42.06
42.11
42.17
42.22
42.28
42.33
42.39
42.44
42.50
42.56
42.61
42.67
42.72
42.78
42.83
42.89
42.94
43.00
43.06
43.11
43.17
43.22
43.28
43.33
43.39
43.44
43.50
43.56
43.61
43.67
43.72
43.78
43.83
43.89
43.94
44.00
44.06
44.11
44.17
44.22
44.28
44.33
44.39
44.44
44.50
44.56
44.61
44.67
44.72
44.78
44.83
44.89
44.94
45.00
45.06
45.11
45.17
45.22
45.28
45.33
45.39
45.44
45.50
45.56
45.61
45.67
45.72
45.78
45.83
45.89
45.94
46.00
46.06
46.11
46.17
46.22
46.28
46.33
46.39
46.44
46.50
46.56
46.61
46.67
46.72
46.78
46.83
46.89
46.94
47.00
47.06
47.11
47.17
47.22
47.28
47.33
47.39
47.44
47.50
47.56
47.61
47.67
47.72
47.78
47.83
47.89
47.94
48.00
48.06
48.11
48.17
48.22
48.28
48.33
48.39
48.44
48.50
48.56
48.61
48.67
48.72
48.78
48.83
48.89
48.94
49.00
49.06
49.11
49.17
49.22
49.28
49.33
49.39
49.44
49.50
49.56
49.61
49.67
49.72
49.78
49.83
49.89
49.94
50.00
50.06
50.11
50.17
50.22
50.28
50.33
50.39
50.44
50.50
50.56
50.61
50.67
50.72
50.78
50.83
50.89
50.94
51.00
51.06
51.11
51.17
51.22
51.28
51.33
51.39
51.44
51.50
51.56
51.61
51.67
51.72
51.78
51.83
51.89
51.94
52.00
52.06
52.11
52.17
52.22
52.28
52.33
52.39
52.44
52.50
52.56
52.61
52.67
52.72
52.78
52.83
52.89
52.94
53.00
53.06
53.11
53.17
53.22
53.28
53.33
53.39
53.44
53.50
53.56
53.61
53.67
53.72
53.78
53.83
53.89
53.94
54.00
54.06
54.11
54.17
54.22
54.28
54.33
54.39
54.44
54.50
54.56
54.61
54.67
54.72
54.78
54.83
54.89
54.94
55.00
55.06
55.11
55.17
55.22
55.28
55.33
55.39
55.44
55.50
55.56
55.61
55.67
55.72
55.78
55.83
55.89
55.94
56.00
56.06
56.11
56.17
56.22
56.28
56.33
56.39
56.44
56.50
56.56
56.61
56.67
56.72
56.78
56.83
56.89
56.94
57.00
57.06
57.11
57.17
57.22
57.28
57.33
57.39
57.44
57.50
57.56
57.61
57.67
57.72
57.78
57.83
57.89
57.94
58.00
58.06
58.11
58.17
58.22
58.28
58.33
58.39
58.44
58.50
58.56
58.61
58.67
58.72
58.78
58.83
58.89
58.94
59.00
59.06
59.11
59.17
59.22
59.28
59.33
59.39
59.44
59.50
59.56
59.61
59.67
59.72
59.78
59.83
59.89
59.94
60.00
60.06
60.11
60.17
60.22
60.28
60.33
60.39
60.44
60.50
60.56
60.61
60.67
60.72
60.78
60.83
60.89
60.94
61.00
61.06
61.11
61.17
61.22
61.28
61.33
61.39
61.44
61.50
61.56
61.61
61.67
61.72
61.78
61.83
61.89
61.94
62.00
62.06
62.11
62.17
62.22
62.28
62.33
62.39
62.44
62.50
62.56
62.61
62.67
62.72
62.78
62.83
62.89
62.94
63.00
63.06
63.11
63.17
63.22
63.28
63.33
63.39
63.44
63.50
63.56
63.61
63.67
63.72
63.78
63.83
63.89
63.94
64.00
64.06
64.11
64.17
64.22
64.28
64.33
64.39
64.44
64.50
64.56
64.61
64.67
64.72
64.78
64.83
64.89
64.94
65.00
65.06
65.11
65.17
65.22
65.28
65.33
65.39
65.44
65.50
65.56
65.61
65.67
65.72
65.78
65.83
65.89
65.94
66.00
66.06
66.11
66.17
66.22
66.28
66.33
66.39
66.44
66.50
66.56
66.61
66.67
66.72
66.78
66.83
66.89
66.94
67.00
67.06
67.11
67.17
67.22
67.28
67.33
67.39
67.44
67.50
67.56
67.61
67.67
67.72
67.78
67.83
67.89
67.94
68.00
68.06
68.11
68.17
68.22
68.28
68.33
68.39
68.44
68.50
68.56
68.61
68.67
68.72
68.78
68.83
68.89
68.94
69.00
69.06
69.11
69.17
69.22
69.28
69.33
69.39
69.44
69.50
69.56
69.61
69.67
69.72
69.78
69.83
69.89
69.94
70.00
70.06
70.11
70.17
70.22
70.28
70.33
70.39
70.44
70.50
70.56
70.61
70.67
70.72
70.78
70.83
70.89
70.94
71.00
71.06
71.11
71.17
71.22
71.28
71.33
71.39
71.44
71.50
71.56
71.61
71.67
71.72
71.78
71.83
71.89
71.94
72.00
72.06
72.11
72.17
72.22
72.28
72.33
72.39
72.44
72.50
72.56
72.61
72.67
72.72
72.78
72.83
72.89
72.94
73.00
73.06
73.11
73.17
73.22
73.28
73.33
73.39
73.44
73.50
73.56
73.61
73.67
73.72
73.78
73.83
73.89
73.94
74.00
74.06
74.11
74.17
74.22
74.28
74.33
74.39
74.44
74.50
74.56
74.61
74.67
74.72
74.78
74.83
74.89
74.94
75.00
75.06
75.11
75.17
75.22
75.28
75.33
75.39
75.44
75.50
75.56
75.61
75.67
75.72
75.78
75.83
75.89
75.94
76.00
76.06
76.11
76.17
76.22
76.28
76.33
76.39
76.44
76.50
76.56
76.61
76.67
76.72
76.78
76.83
76.89
76.94
77.00
77.06
77.11
77.17
77.22
77.28
77.33
77.39
77.44
77.50
77.56
77.61
77.67
77.72
77.78
77.83
77.89
77.94
78.00
78.06
78.11
78.17
78.22
78.28
78.33
78.39
78.44
78.50
78.56
78.61
78.67
78.72
78.78
78.83
78.89
78.94
79.00
79.06
79.11
79.17
79.22
79.28
79.33
79.39
79.44
79.50
79.56
79.61
79.67
79.72
79.78
79.83
79.89
79.94
80.00
80.06
80.11
80.17
80.22
80.28
80.33
80.39
80.44
80.50
80.56
80.61
80.67
80.72
80.78
80.83
80.89
80.94
81.00
81.06
81.11
81.17
81.22
81.28
81.33
81.39
81.44
81.50
81.56
81.61
81.67
81.72
81.78
81.83
81.89
81.94
82.00
82.06
82.11
82.17
82.22
82.28
82.33
82.39
82.44
82.50
82.56
82.61
82.67
82.72
82.78
82.83
82.89
82.94
83.00
83.06
83.11
83.17
83.22
83.28
83.33
83.39
83.44
83.50
83.56
83.61
83.67
83.72
83.78
83.83
83.89
83.94
84.00
84.06
84.11
84.17
84.22
84.28
84.33
84.39
84.44
84.50
84.56
84.61
84.67
84.72
84.78
84.83
84.89
84.94
85.00
85.06
85.11
85.17
85.22
85.28
85.33
85.39
85.44
85.50
85.56
85.61
85.67
85.72
85.78
85.83
85.89
85.94
86.00
86.06
86.11
86.17
86.22
86.28
86.33
86.39
86.44
86.50
86.56
86.61
86.67
86.72
86.78
86.83
86.89
86.94
87.00
87.06
87.11
87.17
87.22
87.28
87.33
87.39
87.44
87.50
87.56
87.61
87.67
87.72
87.78
87.83
87.89
87.94
88.00
88.06
88.11
88.17
88.22
88.28
88.33
88.39
88.44
88.50
88.56
88.61
88.67
88.72
88.78
88.83
88.89
88.94
89.00
89.06
89.11
89.17
89.22
89.28
89.33
89.39
89.44
89.50
89.56
89.61
89.67
89.72
89.78
89.83
89.89
89.94
90.00
90.06
90.11
90.17
90.22
90.28
90.33
90.39
90.44
90.50
90.56
90.61
90.67
90.72
90.78
90.83
90.89
90.94
91.00
91.06
91.11
91.17
91.22
91.28
91.33
91.39
91.44
91.50
91.56
91.61
91.67
91.72
91.78
91.83
91.89
91.94
92.00
92.06
92.11
92.17
92.22
92.28
92.33
92.39
92.44
92.50
92.56
92.61
92.67
92.72
92.78
92.83
92.89
92.94
93.00
93.06
93.11
93.17
93.22
93.28
93.33
93.39
93.44
93.50
93.56
93.61
93.67
93.72
93.78
93.83
93.89
93.94
94.00
94.06
94.11
94.17
94.22
94.28
94.33
94.39
94.44
94.50
94.56
94.61
94.67
94.72
94.78
94.83
94.89
94.94
95.00
95.06
95.11
95.17
95.22
95.28
95.33
95.39
95.44
95.50
95.56
95.61
95.67
95.72
95.78
95.83
95.89
95.94
96.00
96.06
96.11
96.17
96.22
96.28
96.33
96.39
96.44
96.50
96.56
96.61
96.67
96.72
96.78
96.83
96.89
96.94
97.00
97.06
97.11
97.17
97.22
97.28
97.33
97.39
97.44
97.50
97.56
97.61
97.67
97.72
97.78
97.83
97.89
97.94
98.00
98.06
98.11
98.17
98.22
98.28
98.33
98.39
98.44
98.50
98.56
98.61
98.67
98.72
98.78
98.83
98.89
98.94
99.00
99.06
99.11
99.17
99.22
99.28
99.33
99.39
99.44
99.50
99.56
99.61
99.67
99.72
99.78
99.83
99.89
99.94
100.00
